…
movies1

## # A tibble: 2 x 7
##   director          mean    sd count    se lower_ci upper_ci
##   <chr>            <dbl> <dbl> <int> <dbl>    <dbl>    <dbl>
## 1 Steven Spielberg  7.57 0.695    23 0.145     7.27     7.87
## 2 Tim Burton        6.93 0.749    16 0.187     6.53     7.33

#PREPPING DATA FOR LATER ANALYSIS
movies_dir <- movies %>% 
  filter(director %in% c("Steven Spielberg", "Tim Burton"))

movies_dir

## # A tibble: 39 x 11
##    title genre director  year duration  gross budget cast_facebook_l~  votes
##    <chr> <chr> <chr>    <dbl>    <dbl>  <dbl>  <dbl>            <dbl>  <dbl>
##  1 E.T.~ Fami~ Steven ~  1982      120 4.35e8 1.05e7             2811 281842
##  2 Jura~ Adve~ Steven ~  1993      127 3.57e8 6.30e7             2129 613473
##  3 Alic~ Adve~ Tim Bur~  2010      108 3.34e8 2.00e8            79957 306320
##  4 Alic~ Adve~ Tim Bur~  2010      108 3.34e8 2.00e8            79957 306336
##  5 Indi~ Acti~ Steven ~  2008      122 3.17e8 1.85e8            14959 333847
##  6 Jaws  Adve~ Steven ~  1975      130 2.60e8 8.00e6             2047 412454
##  7 Batm~ Acti~ Tim Bur~  1989      126 2.51e8 3.50e7             2725 269033
##  8 Raid~ Acti~ Steven ~  1981      115 2.42e8 1.80e7            12906 661017
##  9 War ~ Adve~ Steven ~  2005      116 2.34e8 1.32e8            12758 334345
## 10 The ~ Acti~ Steven ~  1997      129 2.29e8 7.30e7             1635 278362
## # ... with 29 more rows, and 2 more variables: reviews <dbl>, rating <dbl>
…
